{
 "clients": [
        {
            "id": "78f15079-e051-409a-a415-23c7a71db76f",
            "name": "Morar, Hauck and D'Amore",
            "address": {
                "street": "Corkery Stream",
                "city": "South Heiditon",
                "state": "KY",
                "zip": "40204"
            },
            "rate": 80.00,
            "rateType": "hr",
            "notes": [
                "Et molestiae deleniti ducimus dolor velit ut dolorem eveniet alias. Ipsa minus et quos et sed ut. Harum cum quos mollitia odio. Vel molestiae facere hic est quae. Natus sed dicta. Et dignissimos occaecati voluptatem quis. Autem consequatur magni quod. Repellendus voluptas explicabo reprehenderit molestias accusantium qui accusantium. Non aliquam sint in. Et doloribus praesentium aperiam qui. Rerum omnis cupiditate non error ut beatae ut. Quisquam suscipit a corrupti ipsa illo. Eius error amet. Asperiores ea itaque officia odio iure. Quo aut iure voluptatem vel earum omnis aut sed perspiciatis."
            ],
            "contacts": [
                {
                    "first": "Jalyn",
                    "last": "Ratke",
                    "title": "Mr.",
                    "meansOfContact": [
                        {
                            "contactMechanism": "phone",
                            "contactData": "9681017569",
                            "isDefault": true
                        },
                        {
                            "contactMechanism": "email",
                            "contactData": "Jalyn.Ratke67@hotmail.com",
                            "isDefault": true
                        }
                    ]
                }
            ],
            "documents": [
                {
                    "type": "text/pdf",
                    "name": "SOW1.pdf",
                    "dtSigned": "2019-05-22",
                    "misc": "Accusantium necessitatibus voluptas adipisci aliquam nulla dolorem rerum.",
                    "documentId": "674bbcc1-7f77-40e2-a2ad-113fbea0c719"
                },
                {
                    "type": "text/pdf",
                    "name": "SOW2.pdf",
                    "dtSigned": "2019-06-11",
                    "misc": "Elit irure eiusmod et labore dolor reprehenderit. Pariatur eu veniam aliqua nisi. Pariatur nisi deserunt minim id minim dolore consequat pariatur ea. Duis proident et et ex reprehenderit cupidatat amet anim do occaecat sunt.",
                    "documentId": "c24509a1-3333-4661-a1c8-7483923abcad"
                }
            ],
            "workHistory": [
                {
                    "dtSigned": "2019-06-01",
                    "dtApproved": "2019-06-10",
                    "name": "",
                    "documentId": "57831058-21b7-472e-a66b-120d2352c5a1",
                    "invoice": "001",
                    "dtPaid": "2019-07-01",
                    "amountBilled": 150.00,
                    "amountPaid": 0.00,
                    "hours": [
                        {
                            "startTime": "2019-06-02 16:00:00",
                            "endTime": "2019-06-02 17:00:00",
                            "notes": "Asperiores itaque est quisquam architecto sit aut. Ut impedit eveniet. Nobis nemo ipsa et tempore aut corrupti quis quia."
                        }
                    ]
                }
            ]
        }
    ]
}